{
  "contacts": [
    {
      "name": "Janet Doe",
      "email": "jane@doe.com",
      "id": "SZuuoBIHVRYuWGWavPYH2"
    },
    {
      "name": "Aamir Afridi",
      "email": "aamir@test.com",
      "id": "YMZ8ARsxgXxgQ9F8zlndy"
    }
  ]
}